{
	"items": [
		{
			"path": "F:/Git Repositories/opencart-modules/v2-oc2011/src/kuler_cp",
			"linkFolders": ["admin/view/kuler/bootstrap", "admin/view/kuler/asset", "admin/view/kuler/angular", "admin/view/kuler/ckeditor"]
		},
		{
			"path": "F:/Git Repositories/opencart-theme-ioc7/v2/src",
			"linkFolders": ["admin/view/image/ioc7", "catalog/view/theme/ioc7"]
		},
		{
			"path": "F:/Git Repositories/opencart-modules/v2-oc2011/src/kuler_advanced_html"
		},
		{
			"path": "F:/Git Repositories/opencart-modules/v2-oc2011/src/kuler_blog_manager"
		},
		{
			"path": "F:/Git Repositories/opencart-modules/v2-oc2011/src/kuler_contact_form"
		},
		{
			"path": "F:/Git Repositories/opencart-modules/v2-oc2011/src/kuler_filter"
		},
        {
            "path": "F:/Git Repositories/opencart-modules/v2-oc2011/src/kuler_layer_slider"
        },
		{
			"path": "F:/Git Repositories/opencart-modules/v2-oc2011/src/kuler_menu"
		},
		{
			"path": "F:/Git Repositories/opencart-modules/v2-oc2011/src/kuler_showcase"
		},
		{
			"path": "F:/Git Repositories/opencart-modules/v2-oc2011/src/kuler_testimonial"
		}
	]
}